srv.ItemData.CommonUsable,,,,,,,,,,,,,,,,
Name,Image,Price,Effect,Script,Description,Level,Categories,Script Data,Crafting Tool,Crafting Time,Crafting recipe,Stack Size,Yield,,srv.ItemData.DropIndex,
Adamantine Crystal,craft_ada.png,ingredient,,,An Adamantine Crystal,1,Salvaging,,,,,,,,Category Name,Parent Category
Ash Wood,chickenbox.png,ingredient,,,A piece of Ash Wood,1,Salvaging,,,,,,,,Metal,Crafting
Beech Wood,chickenbox.png,ingredient,,,A piece of Beech Wood,1,Salvaging,,,,,,,,Wood,Crafting
Birch Wood,chickenbox.png,ingredient,,,A piece of Birch Wood,1,Salvaging,,,,,,,,QuestCraft,Crafting
Bone Fragment,copper.png,ingredient,,,A Bone Fragments,1,Salvaging,,,,,,,,Alchemy,Crafting
Bronze Nugget,craft_bronze.png,ingredient,,,A Bronze Nugget,1,Salvaging,,,,,,,,,
Elderwood Timber,chickenbox.png,ingredient,,,A piece of Elderwood Timber,1,Salvaging,,,,,,,,,
Elm Wood,chickenbox.png,ingredient,,,A piece of Elm Wood,1,Salvaging,,,,,,,,,
Flint Shard,chickenbox.png,ingredient,,,A Flint Shard,1,Salvaging,,,,,,,,,
Iron Slag,craft_iron.png,ingredient,,,An Iron Slag,3,Salvaging,,,,,,,,,
Iron Matte,craft_iron.png,ingredient,,,"An Iron Matte, starting to get a the precious metal.",5,Salvaging,,,,,,,,,
Pig Iron,craft_iron.png,ingredient,,,,8,Salvaging,,,,,,,,,
Ironwood Timber,chickenbox.png,ingredient,,,A piece of Ironwood Timber,1,Salvaging,,,,,,,,,
Ivory Tusk,chickenbox.png,ingredient,,,An Ivory Tusk,1,Salvaging,,,,,,,,,
Leather Scrap,chickenbox.png,ingredient,,,A piece of Leather Scrap,1,Salvaging,,,,,,,,,
Mythril Nugget,craft_myth.png,ingredient,,,A Mythril Nugget,1,Salvaging,,,,,,,,,
Oak Wood,chickenbox.png,ingredient,,,A piece of Oak Wood,1,Salvaging,,,,,,,,,
Obsidian Shard,craft_iron.png,ingredient,,,An Obsidian Shard,1,Salvaging,,,,,,,,,
Orichalcum Shard,craft_orc.png,ingredient,,,An Orichalcum Shard,1,Salvaging,,,,,,,,,
Steel Chunk,craft_iron.png,ingredient,,,A Steel Chunk,1,Salvaging,,,,,,,,,
Coal,craft_coal.png,ingredient,,,A piece of coal useful to keep a fire going.,1,Salvaging,,,,,200,,,,
Cotton,data/gui/items/plants/cotton.png,ingredient,,,,1,Salvaging,,,,,,,,,
Hide,leather.png,ingredient,,,,1,Salvaging,,,,,,,,,
Rawhide,leather.png,ingredient,,,,5,Salvaging,,,,,,,,,
Leather,leather.png,ingredient,,,,8,Salvaging,,,,,,,,,
Royal Slime Jelly,jamSlime.png,ingredient,,,Some Royal Jelly. Highly prized by jam makers.,1,QuestCraft,,,,,1,,,,
Special Sand,craft_sand.png,ingredient,,,A sand with flavor enhancing properties.,1,QuestCraft,,,,,1,,,,
Small Vial of Alkanet,chickenbox.png,ingredient,,,Rawr,1,Alchemy,,,,,100,,,,
Cotton Piece,data/gui/items/misc/seeds/unused/seeds.png,ingredient,,"Seeds(user, target, equipSlot, item);",Broken Seeds,1,Salvaging,,,,,100,,,,
Dandelion,data/gui/items/plants/dandelion.png,ingredient,,,Dandelion Plant,1,Plants,,,,,50,,,,
Pansy,data/gui/items/plants/pansy.png,ingredient,,,Pansy Plant,11,Plants,,,,,50,,,,
Celandine,data/gui/items/plants/celandine.png,ingredient,,,Celandine Plant,26,Plants,,,,,50,,,,
Ginseng,data/gui/items/plants/ginseng.png,ingredient,,,Ginseng Plant,40,Plants,,,,,50,,,,
Jasmine,data/gui/items/plants/jasmine.png,ingredient,,,Jasmine Plant,55,Plants,,,,,50,,,,
Alkamet,data/gui/items/plants/alkamet.png,ingredient,,,Alkamet Plant,66,Plants,,,,,50,,,,
Marjoram,data/gui/items/plants/marjoram.png,ingredient,,,Marjoram Plant,76,Plants,,,,,50,,,,
Silverweed,data/gui/items/plants/silverweed.png,ingredient,,,Silverweed Plant,86,Plants,,,,,50,,,,
Iris,data/gui/items/plants/iris.png,ingredient,,,Iris Plant,95,Plants,,,,,50,,,,
Broken Dandelion,data/gui/items/misc/seeds/unused/seeds.png,ingredient,,"Seeds(user, target, equipSlot, item);","Broken Dandelion Pieces
Combine 10 to make a Dandelion Plant",1,Plants,,,,,100,,,,
Broken Pansy,data/gui/items/misc/seeds/unused/seeds.png,ingredient,,"Seeds(user, target, equipSlot, item);","Broken Pansy Pieces
Combine 10 to make a Pansy Plant",1,Plants,,,,,100,,,,
Broken Celandine,data/gui/items/misc/seeds/unused/seeds.png,ingredient,,"Seeds(user, target, equipSlot, item);","Broken Celandine Pieces
Combine 10 to make a Celandine Plant",1,Plants,,,,,100,,,,
Broken Ginseng,data/gui/items/misc/seeds/unused/seeds.png,ingredient,,"Seeds(user, target, equipSlot, item);","Broken Ginseng Pieces
Combine 10 to make a Ginseng Plant",1,Plants,,,,,100,,,,
Broken Jasmine,data/gui/items/misc/seeds/unused/seeds.png,ingredient,,"Seeds(user, target, equipSlot, item);","Broken Jasmine Pieces
Combine 10 to make a Jasmine Plant",1,Plants,,,,,100,,,,
Broken Alkamet,data/gui/items/misc/seeds/unused/seeds.png,ingredient,,"Seeds(user, target, equipSlot, item);","Broken Alkamet Pieces
Combine 10 to make an Alkamet Plant",1,Plants,,,,,100,,,,
Broken Marjoram,data/gui/items/misc/seeds/unused/seeds.png,ingredient,,"Seeds(user, target, equipSlot, item);","Broken Majoram Pieces
Combine 10 to make a Marjoram Plant",1,Plants,,,,,100,,,,
Broken Silverweed,data/gui/items/misc/seeds/unused/seeds.png,ingredient,,"Seeds(user, target, equipSlot, item);","Broken Silverweed Pieces
Combine 10 to make a Silverweed Plant",1,Plants,,,,,100,,,,
Broken Iris,data/gui/items/misc/seeds/unused/seeds.png,ingredient,,"Seeds(user, target, equipSlot, item);","Broken Iris Pieces
Combine 10 to make an Iris Plant",1,Plants,,,,,100,,,,
Basic Potion,data/gui/items/potions/basicPotion.png,ingredient,,"BasicPotions(user, target, equipSlot, item);","A Basic Potion used for crafting
Combine 10 to make a Basic Serum",1,Boiling,,Alchemy Bench,15000,"Dandelion, 1",20,3,,,
Basic Serum,data/gui/items/potions/basicSerum.png,ingredient,,"BasicPotions(user, target, equipSlot, item);","A Basic Serum used for crafting
Combine 10 to make a Basic Infusion",11,Boiling,,Alchemy Bench,15000,"Pansy, 1",20,3,,,
Basic Infusion,data/gui/items/potions/basicInfusion.png,ingredient,,"BasicPotions(user, target, equipSlot, item);","A Basic Infusion used for crafting
Combine 10 to make a Basic Tincture",26,Boiling,,Alchemy Bench,15000,"Celandine, 1",20,3,,,
Basic Tincture,data/gui/items/potions/basicTincture.png,ingredient,,"BasicPotions(user, target, equipSlot, item);","A Basic Tincture used for crafting
Combine 10 to make a Basic Minor Elixir",40,Boiling,,Alchemy Bench,15000,"Ginseng, 1",20,3,,,
Basic Minor Elixir,data/gui/items/potions/basicMinorElixir.png,ingredient,,"BasicPotions(user, target, equipSlot, item);","A Basic Minor Elixir used for crafting
Combine 10 to make a Basic Grand Elixir",55,Boiling,,Alchemy Bench,15000,"Jasmine, 1",20,3,,,
Basic Grand Elixir,data/gui/items/potions/basicGrandElixir.png,ingredient,,"BasicPotions(user, target, equipSlot, item);","A Basic Grand Elixir used for crafting
Combine 10 to make a Basic Minor Panacea",66,Boiling,,Alchemy Bench,15000,"Alkamet, 1",20,3,,,
Basic Minor Panacea,data/gui/items/potions/basicMinorPanacea.png,ingredient,,"BasicPotions(user, target, equipSlot, item);","A Basic Minor Panacea used for crafting
Combine 10 to make a Basic Common Panacea",76,Boiling,,Alchemy Bench,15000,"Marjoram, 1",20,3,,,
Basic Common Panacea,data/gui/items/potions/basicCommonPanacea.png,ingredient,,"BasicPotions(user, target, equipSlot, item);","A Basic Common Panacea used for crafting
Combine 10 to make a Basic Grand Panacea",86,Boiling,,Alchemy Bench,15000,"Silverweed, 1",20,3,,,
Basic Grand Panacea,data/gui/items/potions/basicGrandPanacea.png,ingredient,,"BasicPotions(user, target, equipSlot, item);",A Basic Grand Panacea used for crafting,95,Boiling,,Alchemy Bench,15000,"Iris, 1",20,3,,,
,,,,,,,,,,,,,,,,
,,,,,,,,,,,,,,,,
srv.ItemData.CommonUsable,,,,,,,,,,,,,,,,
Name,Image,Price,Effect,Script,Description,Level,Categories,Script Data,Crafting Tool,Crafting Time,Crafting recipe,Yield,Stack Size,,,
Iron Ore,iron_ore.png,ingredient,,,Raw Iron Ore,1,Metal,,,,,,,,,
Iron Ingot,craft_ironIngot.png,ingredient,,,Crafting metrial for metal based items.,4,Metal,,Blacksmith Forge,5000,"Iron Ore,1",,,,,
Nails,nails.png,ingredient,,,Crafting ingredient,1,Metal,,Blacksmith Work Bench,500,"Iron Ingot,1",15,200,,,
Wood,wood.PNG,ingredient,,,Crafting ingredient,1,Wood,,,,,,,,,
Wood Plank,woodplanks.png,ingredient,,,Crafting ingredient,4,Wood,,Lumber Saw,5000,"Wood,1",2,100,,,
Paper,paper.png,ingredient,,,Crafting ingredient,4,Wood,,Lumber Saw,1000,"Wood,1",2,,,,
Jam Jar Lid,jamLid.png,ingredient,,,A cork lid for a jam jar,1,QuestCraft,,Lumber Saw,5000,"Wood,1",1,1,,,
Royal Jam,jamJar2.png,ingredient,,,A jar full of royal slime jelly.,1,QuestCraft,,Crafting Bench,5000,"Jam Jar Lid,1|Royal Slime Jelly,1|Jam Jar,1",1,1,,,
Jam Jar,jamJar.png,ingredient,,,A handcrafted jam jar.,1,QuestCraft,,Blacksmith Forge,5000,"Special Sand,1",1,1,,,
